Assignment 3: Demand Function Estimation I
…
M is the data frame such that a row contains the price
\(\xi_{jt}\), marginal cost \(c_{jt}\), and price \(p_{jt}\). After generating the variables,
drop 1 - prop_jt products from each market using
dplyr::sample_frac function. The variation in the available
products is important for the identification of the distribution of
consumer-level unobserved heterogeneity. Add the row of the outside
option to each market whose index is \(0\) and all the variables take value
zero.

M

## # A tibble: 700 x 5
##        j     t    xi     c     p
##    <dbl> <int> <dbl> <dbl> <dbl>
##  1     0     1     0 0      0   
##  2     2     1     0 0.929  1.97
##  3     3     1     0 0.976  1.91
##  4     4     1     0 1.02   2.05
##  5     6     1     0 0.995  1.98
##  6     7     1     0 1.02   1.98
##  7     8     1     0 0.997  1.99
##  8     0     2     0 0      0   
##  9     1     2     0 0.980  1.97
## 10     4     2     0 1.04   2.04
## # ... with 690 more rows

Generate the consumer-level heterogeneity. V is the
data frame such that a row contains the vector of shocks to
consumer-level heterogeneity, \((\nu_{i}',
\upsilon_i)\). They are all i.i.d. standard normal random
variables.

V

## # A tibble: 50,000 x 6
##        i     t  v_x_1   v_x_2  v_x_3     v_p
##    <int> <int>  <dbl>   <dbl>  <dbl>   <dbl>
##  1     1     1  1.32  -0.0670 -0.758 -0.590 
##  2     2     1  0.930  1.34    1.16   0.0684
##  3     3     1  1.08   0.768  -0.725 -0.130 
##  4     4     1 -0.300  0.156  -0.641 -0.896 
##  5     5     1  1.04   1.17   -0.224  1.31  
##  6     6     1  0.709 -0.286   0.948  1.15  
##  7     7     1 -1.27   0.193  -0.212 -0.156 
##  8     8     1 -0.932 -0.780   1.49  -0.362 
##  9     9     1  1.37  -0.205   0.594 -0.998 
## 10    10     1 -0.461 -0.834   0.221 -1.62  
## # ... with 49,990 more rows

Join X, M, V using
dplyr::left_join and name it df.
df is the data frame such that a row contains variables for
a consumer about a product that is available in a market.

df

## # A tibble: 350,000 x 13
##        t     i     j v_x_1   v_x_2  v_x_3     v_p   x_1    x_2     x_3    xi
##    <int> <int> <dbl> <dbl>   <dbl>  <dbl>   <dbl> <dbl>  <dbl>   <dbl> <dbl>
##  1     1     1     0 1.32  -0.0670 -0.758 -0.590      0  0      0          0
##  2     1     1     2 1.32  -0.0670 -0.758 -0.590      1  0.369  0.472      0
##  3     1     1     3 1.32  -0.0670 -0.758 -0.590      1  0.288  0.411      0
##  4     1     1     4 1.32  -0.0670 -0.758 -0.590      1 -0.153  0.297      0
##  5     1     1     6 1.32  -0.0670 -0.758 -0.590      1  0.195  0.391      0
##  6     1     1     7 1.32  -0.0670 -0.758 -0.590      1 -0.311  0.0373     0
##  7     1     1     8 1.32  -0.0670 -0.758 -0.590      1 -1.11  -0.995      0
##  8     1     2     0 0.930  1.34    1.16   0.0684     0  0      0          0
##  9     1     2     2 0.930  1.34    1.16   0.0684     1  0.369  0.472      0
## 10     1     2     3 0.930  1.34    1.16   0.0684     1  0.288  0.411      0
## # ... with 349,990 more rows, and 2 more variables: c <dbl>, p <dbl>
…
# compute choice
df_choice <- 
  compute_choice(X, M, V, e, beta, sigma, 
                 mu, omega)
df_choice

## # A tibble: 350,000 x 16
##        t     i     j v_x_1   v_x_2  v_x_3     v_p   x_1    x_2     x_3    xi
##    <int> <int> <dbl> <dbl>   <dbl>  <dbl>   <dbl> <dbl>  <dbl>   <dbl> <dbl>
##  1     1     1     0 1.32  -0.0670 -0.758 -0.590      0  0      0          0
##  2     1     1     2 1.32  -0.0670 -0.758 -0.590      1  0.369  0.472      0
##  3     1     1     3 1.32  -0.0670 -0.758 -0.590      1  0.288  0.411      0
##  4     1     1     4 1.32  -0.0670 -0.758 -0.590      1 -0.153  0.297      0
##  5     1     1     6 1.32  -0.0670 -0.758 -0.590      1  0.195  0.391      0
##  6     1     1     7 1.32  -0.0670 -0.758 -0.590      1 -0.311  0.0373     0
##  7     1     1     8 1.32  -0.0670 -0.758 -0.590      1 -1.11  -0.995      0
##  8     1     2     0 0.930  1.34    1.16   0.0684     0  0      0          0
##  9     1     2     2 0.930  1.34    1.16   0.0684     1  0.369  0.472      0
## 10     1     2     3 0.930  1.34    1.16   0.0684     1  0.288  0.411      0
## # ... with 349,990 more rows, and 5 more variables: c <dbl>, p <dbl>, u <dbl>,
## #   e <dbl>, q <dbl>
…
# compute share
df_share <-
  compute_share(X, M, V, e, beta, sigma, 
                mu, omega)
df_share

## # A tibble: 700 x 11
##        t     j   x_1    x_2      x_3    xi     c     p     q     s       y
##    <int> <dbl> <dbl>  <dbl>    <dbl> <dbl> <dbl> <dbl> <dbl> <dbl>   <dbl>
##  1     1     0     0  0      0           0 0      0      144 0.288  0     
##  2     1     2     1  0.369  0.472       0 0.929  1.97    47 0.094 -1.12  
##  3     1     3     1  0.288  0.411       0 0.976  1.91    37 0.074 -1.36  
##  4     1     4     1 -0.153  0.297       0 1.02   2.05    35 0.07  -1.41  
##  5     1     6     1  0.195  0.391       0 0.995  1.98    60 0.12  -0.875 
##  6     1     7     1 -0.311  0.0373      0 1.02   1.98    44 0.088 -1.19  
##  7     1     8     1 -1.11  -0.995       0 0.997  1.99   133 0.266 -0.0795
##  8     2     0     0  0      0           0 0      0      170 0.34   0     
##  9     2     1     1  0.244 -0.00810     0 0.980  1.97    84 0.168 -0.705 
## 10     2     4     1 -0.153  0.297       0 1.04   2.04    35 0.07  -1.58  
## # ... with 690 more rows
…
For this reason, we first draw Monte Carlo consumer-level
heterogeneity V_mcmc and Monte Carlo preference shocks
e_mcmc. The number of simulations is L. This
does not have to be the same with the actual number of consumers
N.

V_mcmc

## # A tibble: 50,000 x 6
##        i     t   v_x_1  v_x_2   v_x_3    v_p
##    <int> <int>   <dbl>  <dbl>   <dbl>  <dbl>
##  1     1     1 -0.715  -0.798 -0.548   1.09 
##  2     2     1  0.0243 -0.943 -1.88    0.471
##  3     3     1 -0.183   0.660  0.669   1.45 
##  4     4     1  0.0207  3.36  -0.363   1.58 
##  5     5     1 -1.94    0.221  1.02    0.943
##  6     6     1  0.876  -0.636  0.0432  0.324
##  7     7     1  1.96   -0.195 -0.0950  1.39 
##  8     8     1  1.11    0.571  1.77    0.497
##  9     9     1  1.45    0.154  1.96    0.740
## 10    10     1 -1.00   -0.413  0.0542 -0.469
## # ... with 49,990 more rows

head(e_mcmc)

## [1]  0.265602821  0.652183731 -0.006127627 -0.317288366  3.145022297
## [6] -1.277026910

Use compute_share to check the simulated share at the
true parameter using the Monte Carlo shocks. Remember that the number of
consumers should be set at L instead of
N.

df_share_mcmc

## # A tibble: 700 x 11
##        t     j   x_1    x_2      x_3    xi     c     p     q     s      y
##    <int> <dbl> <dbl>  <dbl>    <dbl> <dbl> <dbl> <dbl> <dbl> <dbl>  <dbl>
##  1     1     0     0  0      0           0 0      0      171 0.342  0    
##  2     1     2     1  0.369  0.472       0 0.929  1.97    46 0.092 -1.31 
##  3     1     3     1  0.288  0.411       0 0.976  1.91    37 0.074 -1.53 
##  4     1     4     1 -0.153  0.297       0 1.02   2.05    38 0.076 -1.50 
##  5     1     6     1  0.195  0.391       0 0.995  1.98    38 0.076 -1.50 
##  6     1     7     1 -0.311  0.0373      0 1.02   1.98    52 0.104 -1.19 
##  7     1     8     1 -1.11  -0.995       0 0.997  1.99   118 0.236 -0.371
##  8     2     0     0  0      0           0 0      0      194 0.388  0    
##  9     2     1     1  0.244 -0.00810     0 0.980  1.97    62 0.124 -1.14 
## 10     2     4     1 -0.153  0.297       0 1.04   2.04    37 0.074 -1.66 
## # ... with 690 more rows
…
