Assignment 5: Merger Simulation with Rcpp
…
M

## # A tibble: 696 × 5
##        j     t      xi     c     p
##    <dbl> <int>   <dbl> <dbl> <dbl>
##  1     0     1  0      0         0
##  2     2     1 -0.735  1.04      0
##  3     6     1 -0.0514 0.980     0
##  4     7     1  0.194  0.961     0
##  5     8     1 -0.0269 0.989     0
##  6     0     2  0      0         0
##  7     1     2 -0.197  0.988     0
##  8     2     2 -0.0297 1.04      0
##  9     4     2  0.382  1.00      0
## 10     5     2 -0.0823 1.02      0
## # … with 686 more rows
…
V

## # A tibble: 50,000 × 6
##        i     t   v_x_1   v_x_2   v_x_3     v_p
##    <int> <int>   <dbl>   <dbl>   <dbl>   <dbl>
##  1     1     1  0.448   0.985   0.611   0.408 
##  2     2     1 -0.386  -0.389  -1.11   -0.667 
##  3     3     1  0.0567  0.0510  0.0329 -0.119 
##  4     4     1  0.585   0.303   0.860  -1.20  
##  5     5     1 -0.449  -1.17    0.599   0.212 
##  6     6     1 -0.782   0.0596  1.30    0.485 
##  7     7     1  1.60   -1.62   -1.91    0.669 
##  8     8     1 -1.65    2.10    0.726  -0.108 
##  9     9     1 -0.848  -0.933   2.29   -0.0195
## 10    10     1 -0.130  -0.897  -1.90   -0.185 
## # … with 49,990 more rows
…
