Chapter 1 Assignment 2: Production Function Estimation | A2-assignment.knit
…
## [1] 0.4077423

Simulate the data first using the labor choice without optimization error and second using the labor choice with optimization error. To do so, we specify the initial values for the state variables \(k_{jt}\) and \(\omega_{jt}\) as follows.

Draw \(k_{j1}\) from an i.i.d. normal distribution with mean 1 and standard deviation 0.5. Draw \(\omega_{j1}\) from its stationary distribution (check the stationary distribution of AR(1) process). Draw a wage. Before simulating the rest of the data, set the seed at 1.

df

## # A tibble: 1,000 × 5
##        j     t     k   omega  wage
##    <int> <dbl> <dbl>   <dbl> <dbl>
##  1     1     1 0.687  0.795    0.5
##  2     2     1 1.09   0.779    0.5
##  3     3     1 0.582 -0.610    0.5
##  4     4     1 1.80   0.148    0.5
##  5     5     1 1.16   0.0486   0.5
##  6     6     1 0.590 -1.16     0.5
##  7     7     1 1.24   0.568    0.5
##  8     8     1 1.37  -1.34     0.5
##  9     9     1 1.29  -0.873    0.5
## 10    10     1 0.847  0.699    0.5
## # ℹ 990 more rows

Draw optimization error \(\iota_{jt}\) and compute the labor and investment choice of period 1. For labor choice, compute both types of labor choices.

df

## # A tibble: 1,000 × 9
##        j     t     k   omega  wage     iota      l l_error     inv
##    <int> <dbl> <dbl>   <dbl> <dbl>    <dbl>  <dbl>   <dbl>   <dbl>
##  1     1     1 0.687  0.795    0.5 -0.0443   1.72   1.67    0.257 
##  2     2     1 1.09   0.779    0.5 -0.0961   2.06   1.94    0.381 
##  3     3     1 0.582 -0.610    0.5  0.0810  -0.123 -0.0218 -0.0196
##  4     4     1 1.80   0.148    0.5  0.0260   1.89   1.92    0.391 
##  5     5     1 1.16   0.0486   0.5 -0.00279  1.21   1.21    0.176 
##  6     6     1 0.590 -1.16     0.5  0.0348  -0.809 -0.766  -0.120 
##  7     7     1 1.24   0.568    0.5  0.00268  1.93   1.93    0.370 
##  8     8     1 1.37  -1.34     0.5 -0.0655  -0.346 -0.428  -0.330 
##  9     9     1 1.29  -0.873    0.5 -0.106    0.165  0.0327 -0.135 
## 10    10     1 0.847  0.699    0.5 -0.0104   1.74   1.73    0.280 
## # ℹ 990 more rows

Draw ex post shock and compute the output according to the production function for both labor without optimization error and with optimization error. Name the output without optimization error y and the one with optimization error y_error.

## # A tibble: 1,000 × 12
##        j     t     k   omega  wage     iota      l l_error     inv     eta     y
##    <int> <dbl> <dbl>   <dbl> <dbl>    <dbl>  <dbl>   <dbl>   <dbl>   <dbl> <dbl>
##  1     1     1 0.687  0.795    0.5 -0.0443   1.72   1.67    0.257   0.148  2.77 
##  2     2     1 1.09   0.779    0.5 -0.0961   2.06   1.94    0.381   0.0773 3.03 
##  3     3     1 0.582 -0.610    0.5  0.0810  -0.123 -0.0218 -0.0196  0.259  1.03 
##  4     4     1 1.80   0.148    0.5  0.0260   1.89   1.92    0.391  -0.161  2.62 
##  5     5     1 1.16   0.0486   0.5 -0.00279  1.21   1.21    0.176  -0.321  1.79 
##  6     6     1 0.590 -1.16     0.5  0.0348  -0.809 -0.766  -0.120   0.187  0.274
##  7     7     1 1.24   0.568    0.5  0.00268  1.93   1.93    0.370   0.361  3.19 
##  8     8     1 1.37  -1.34     0.5 -0.0655  -0.346 -0.428  -0.330  -0.0113 0.539
##  9     9     1 1.29  -0.873    0.5 -0.106    0.165  0.0327 -0.135   0.377  1.44 
## 10    10     1 0.847  0.699    0.5 -0.0104   1.74   1.73    0.280   0.316  2.96 
## # ℹ 990 more rows
## # ℹ 1 more variable: y_error <dbl>

Repeat this procedure for \(t = 1, \cdots 10\) by updating the capital and anticipated shocks, and name the resulting data frame df_all. Use the previously generated df as the data for t = 1. In each perio, generate nu, iota, and eta in this order, if you want to match the realization of the random variables.

df_all

## # A tibble: 10,000 × 13
##        j     t     k   omega  wage     iota      l l_error     inv     eta     y
##    <int> <dbl> <dbl>   <dbl> <dbl>    <dbl>  <dbl>   <dbl>   <dbl>   <dbl> <dbl>
##  1     1     1 0.687  0.795    0.5 -0.0443   1.72   1.67    0.257   0.148  2.77 
##  2     2     1 1.09   0.779    0.5 -0.0961   2.06   1.94    0.381   0.0773 3.03 
##  3     3     1 0.582 -0.610    0.5  0.0810  -0.123 -0.0218 -0.0196  0.259  1.03 
##  4     4     1 1.80   0.148    0.5  0.0260   1.89   1.92    0.391  -0.161  2.62 
##  5     5     1 1.16   0.0486   0.5 -0.00279  1.21   1.21    0.176  -0.321  1.79 
##  6     6     1 0.590 -1.16     0.5  0.0348  -0.809 -0.766  -0.120   0.187  0.274
##  7     7     1 1.24   0.568    0.5  0.00268  1.93   1.93    0.370   0.361  3.19 
##  8     8     1 1.37  -1.34     0.5 -0.0655  -0.346 -0.428  -0.330  -0.0113 0.539
##  9     9     1 1.29  -0.873    0.5 -0.106    0.165  0.0327 -0.135   0.377  1.44 
## 10    10     1 0.847  0.699    0.5 -0.0104   1.74   1.73    0.280   0.316  2.96 
## # ℹ 9,990 more rows
## # ℹ 2 more variables: y_error <dbl>, nu <dbl>
…
Using the estimates in the first step, compute:
\[
y_{jt} - \hat{\beta_l} l_{jt},
\]
and:
\[
\hat{\phi}(k_{j, t - 1}, I_{j, t - 1}),
\]
for each \(j\) and \(t\) and save it as a data frame names df_all_1st.

df_all_1st

## # A tibble: 10,000 × 4
##        j     t y_error_tilde phi_t_1
##    <int> <dbl>         <dbl>   <dbl>
##  1     1     1         2.34   NA    
##  2     1     2         1.37    2.21 
##  3     1     3         0.621   1.49 
##  4     1     4         0.447   0.880
##  5     1     5         0.878   0.611
##  6     1     6         1.62    0.926
##  7     1     7         0.558   1.40 
##  8     1     8         0.684   0.439
##  9     1     9         0.939   0.525
## 10     1    10         1.49    0.838
## # ℹ 9,990 more rows
…
