Chapter 13 Assignment 5: Merger Simulation | ECON 6120I Topics in Empirical Industrial Organization
…
M is the data frame such that a row contains the price \(\xi_{jt}\), marginal cost \(c_{jt}\), and price \(p_{jt}\). For now, set \(p_{jt} = 0\) and fill the equilibrium price later. After generating the variables, drop some products in each market. In order to change the number of available products in each market, for each market, first draw \(J_t\) from a discrete uniform distribution between \(1\) and \(J\). Then, drop products from each market using dplyr::sample_frac function with the realized number of available products. The variation in the available products is important for the identification of the distribution of consumer-level unobserved heterogeneity. Add the row of the outside option to each market whose index is \(0\) and all the variables take value zero.

M

## # A tibble: 689 x 5
##        j     t      xi     c     p
##    <dbl> <int>   <dbl> <dbl> <dbl>
##  1     0     1  0      0         0
##  2     1     1 -0.0779 0.951     0
##  3     2     1 -0.735  1.04      0
##  4     7     1  0.194  0.961     0
##  5    10     1 -0.207  1.02      0
##  6     0     2  0      0         0
##  7     8     2  0.278  0.955     0
##  8     0     3  0      0         0
##  9     3     3 -0.0562 1.02      0
## 10     0     4  0      0         0
## #  with 679 more rows

Generate the consumer-level heterogeneity. V is the data frame such that a row contains the vector of shocks to consumer-level heterogeneity, \((\nu_{i}', \upsilon_i)\). They are all i.i.d. standard normal random variables.

V

## # A tibble: 50,000 x 6
##        i     t   v_x_1    v_x_2  v_x_3      v_p
##    <int> <int>   <dbl>    <dbl>  <dbl>    <dbl>
##  1     1     1  0.559  -0.362   -0.707  0.594  
##  2     2     1 -1.00   -0.306    0.324 -0.368  
##  3     3     1  0.900   0.464    0.253 -0.994  
##  4     4     1  0.152  -0.640   -0.622 -0.290  
##  5     5     1 -0.301  -2.18     0.151  0.475  
##  6     6     1  0.0512 -1.05     0.430  0.159  
##  7     7     1  0.292   0.00469  1.29   0.761  
##  8     8     1  0.245  -0.330   -0.420 -0.00911
##  9     9     1  0.0827 -0.00644 -1.59  -1.02   
## 10    10     1 -0.0404 -0.0764   0.259 -0.911  
## #  with 49,990 more rows
…
