Chapter 19 Assignment 9: Auction | ECON 6120I Topics in Empirical Industrial Organization
…
# draw reserve prices
reserve <- 0.2
reserve <- tibble::tibble(t = 1:T, r = reserve)

Write a function compute_winning_bids_second(valuation, reserve) that returns a winning bid from each second-price auction. It returns nothing for an auction in which no bid was above the reserve price. In the output, t refers to the auction index, m to the number of actual bidders, r to the reserve price, and w to the winning bid.

# compute winning bids from second-price auction
df_second_w <-
  compute_winning_bids_second(valuation, reserve)
df_second_w

## # A tibble: 100 x 5
##        t     n     m     r     w
##    <int> <int> <int> <dbl> <dbl>
##  1     1     8     8   0.2 0.637
##  2     2    10    10   0.2 0.647
##  3     3     7     5   0.2 0.484
##  4     4    11     8   0.2 0.804
##  5     5    14    12   0.2 0.920
##  6     6    12    11   0.2 0.942
##  7     7    11     9   0.2 0.810
##  8     8     9     9   0.2 0.724
##  9     9    14    14   0.2 0.880
## 10    10    11     9   0.2 0.677
## #  with 90 more rows
…
b <- bid_first(x, r, alpha, beta, n); b

## [1] 0

b <- bid_first(1, r, alpha, beta, n); b

## [1] 0.7978258

Write a function compute_bids_first(valuation, reserve, alpha, beta) that returns bids from each first-price auctions. It returns bids below the reserve price.

# compute bid data from first-price auctions
df_first <- compute_bids_first(valuation, reserve, alpha, beta)
df_first

## # A tibble: 994 x 7
##        t     i     x     r     n     m     b
##    <int> <int> <dbl> <dbl> <int> <int> <dbl>
##  1     1     1 0.390   0.2     8     8 0.360
##  2     1     2 0.410   0.2     8     8 0.378
##  3     1     3 0.422   0.2     8     8 0.388
##  4     1     4 0.637   0.2     8     8 0.577
##  5     1     5 0.450   0.2     8     8 0.413
##  6     1     6 0.359   0.2     8     8 0.332
##  7     1     7 0.837   0.2     8     8 0.731
##  8     1     8 0.440   0.2     8     8 0.404
##  9     2     1 0.449   0.2    10    10 0.420
## 10     2     2 0.472   0.2    10    10 0.441
## #  with 984 more rows
…
Write a function compute_winning_bids_first(valuation, reserve, alpha, beta) that returns only the winning bids from each first-price auction. It will call compute_bids_first inside the function. It does not return anything when no bidder bids above the reserve price.

# compute winning bids from first-price auctions
df_first_w <-
  compute_winning_bids_first(valuation, reserve, alpha, beta)
df_first_w

## # A tibble: 100 x 5
##        t     n     m     r     w
##    <int> <int> <int> <dbl> <dbl>
##  1     1     8     8   0.2 0.731
##  2     2    10    10   0.2 0.638
##  3     3     7     5   0.2 0.525
##  4     4    11     8   0.2 0.818
##  5     5    14    12   0.2 0.842
##  6     6    12    11   0.2 0.833
##  7     7    11     9   0.2 0.772
##  8     8     9     9   0.2 0.753
##  9     9    14    14   0.2 0.849
## 10    10    11     9   0.2 0.803
## #  with 90 more rows
…
