Chapter 4 Assignment 1: Basic Programming in R | ECON 6120I Topics in Empirical Industrial Organization
…
4.1 Simulate data

Consider to simulate data from the following model and estimate the parameters from the simulated data.

\[
y_{ij} = 1\{j = \text{argmax}_{k = 1, 2} \beta x_k + \epsilon_{ik} \},
\] where \(\epsilon_{ik}\) follows i.i.d. type-I extreme value distribution, \(\beta = 0.2\), \(x_1 = 0\) and \(x_2 = 1\).

To simulate data, first make a data frame as follows:

## Warning: `as.tibble()` is deprecated, use `as_tibble()` (but mind the new semantics).
## This warning is displayed once per session.

## # A tibble: 2,000 x 3
##        i     k     x
##    <int> <int> <dbl>
##  1     1     1     0
##  2     1     2     1
##  3     2     1     0
##  4     2     2     1
##  5     3     1     0
##  6     3     2     1
##  7     4     1     0
##  8     4     2     1
##  9     5     1     0
## 10     5     2     1
## # … with 1,990 more rows

Second, draw type-I extreme value random variables. Set the seed at 1. You can use evd package to draw the variables. You should get exactly the same realization if the seed is correctly set.

## # A tibble: 2,000 x 4
##        i     k     x       e
##    <int> <int> <dbl>   <dbl>
##  1     1     1     0  0.281 
##  2     1     2     1 -0.167 
##  3     2     1     0  1.93  
##  4     2     2     1  1.97  
##  5     3     1     0  0.830 
##  6     3     2     1 -1.06  
##  7     4     1     0 -0.207 
##  8     4     2     1  0.617 
##  9     5     1     0  0.0444
## 10     5     2     1  1.92  
## # … with 1,990 more rows

Third, compute the latent value of each option to obtain the following data frame:

## # A tibble: 2,000 x 5
##        i     k     x       e  latent
##    <int> <int> <dbl>   <dbl>   <dbl>
##  1     1     1     0  0.281   0.281 
##  2     1     2     1 -0.167   0.0331
##  3     2     1     0  1.93    1.93  
##  4     2     2     1  1.97    2.17  
##  5     3     1     0  0.830   0.830 
##  6     3     2     1 -1.06   -0.863 
##  7     4     1     0 -0.207  -0.207 
##  8     4     2     1  0.617   0.817 
##  9     5     1     0  0.0444  0.0444
## 10     5     2     1  1.92    2.12  
## # … with 1,990 more rows

Finally, compute \(y\) by comparing the latent values of \(k = 1, 2\) for each \(i\) to obtain the following result:

## # A tibble: 2,000 x 6
##        i     k     x       e  latent     y
##    <int> <int> <dbl>   <dbl>   <dbl> <dbl>
##  1     1     1     0  0.281   0.281      1
##  2     1     2     1 -0.167   0.0331     0
##  3     2     1     0  1.93    1.93       0
##  4     2     2     1  1.97    2.17       1
##  5     3     1     0  0.830   0.830      1
##  6     3     2     1 -1.06   -0.863      0
##  7     4     1     0 -0.207  -0.207      0
##  8     4     2     1  0.617   0.817      1
##  9     5     1     0  0.0444  0.0444     0
## 10     5     2     1  1.92    2.12       1
## # … with 1,990 more rows
…
