Chapter 14 Assignment 4: Demand Function Estimation II | ECON 6120I Topics in Empirical Industrial Organization
…
M is the data frame such that a row contains the price \(\xi_{jt}\), marginal cost \(c_{jt}\), and price \(p_{jt}\). After generating the variables, drop some products in each market. In this assignment, we drop products in a different way from the last assignment. In order to change the number of available products in each market, for each market, first draw \(J_t\) from a discrete uniform distribution between \(1\) and \(J\). Then, drop products from each market using dplyr::sample_frac function with the realized number of available products. The variation in the available products is important for the identification of the distribution of consumer-level unobserved heterogeneity. Add the row of the outside option to each market whose index is \(0\) and all the variables take value zero.

M

## # A tibble: 746 x 5
##        j     t      xi     c     p
##    <dbl> <int>   <dbl> <dbl> <dbl>
##  1     0     1  0      0      0   
##  2     6     1 -0.0514 0.980  1.91
##  3     0     2  0      0      0   
##  4     1     2 -0.197  0.988  1.90
##  5    10     2 -0.354  1.05   1.82
##  6     0     3  0      0      0   
##  7     1     3  0.182  1.04   2.22
##  8     2     3  0.384  1.01   2.61
##  9     3     3 -0.0562 1.02   2.01
## 10     4     3  0.441  1.01   2.62
## #  with 736 more rows

Generate the consumer-level heterogeneity. V is the data frame such that a row contains the vector of shocks to consumer-level heterogeneity, \((\nu_{i}', \upsilon_i)\). They are all i.i.d. standard normal random variables.

V

## # A tibble: 50,000 x 6
##        i     t   v_x_1  v_x_2   v_x_3    v_p
##    <int> <int>   <dbl>  <dbl>   <dbl>  <dbl>
##  1     1     1  1.16   -1.40   0.0786 -1.15 
##  2     2     1 -1.05   -0.149  1.08    0.623
##  3     3     1 -0.426  -4.21   0.625  -1.14 
##  4     4     1 -0.235   0.463  0.470   0.241
##  5     5     1  1.19   -0.342  0.169   0.160
##  6     6     1  0.541   0.525  0.305   1.72 
##  7     7     1 -0.0893 -0.434  2.18   -0.432
##  8     8     1 -0.712   0.747 -0.306  -0.527
##  9     9     1  0.504   1.11   1.70   -1.75 
## 10    10     1 -0.107   1.83  -0.841   0.693
## #  with 49,990 more rows

Join X, M, V using dplyr::left_join and name it df. df is the data frame such that a row contains variables for a consumer about a product that is available in a market.

df

## # A tibble: 373,000 x 13
##        t     i     j  v_x_1  v_x_2  v_x_3    v_p   x_1   x_2   x_3      xi
##    <int> <int> <dbl>  <dbl>  <dbl>  <dbl>  <dbl> <dbl> <dbl> <dbl>   <dbl>
##  1     1     1     0  1.16  -1.40  0.0786 -1.15      0 0      0     0     
##  2     1     1     6  1.16  -1.40  0.0786 -1.15      1 0.780  1.56 -0.0514
##  3     1     2     0 -1.05  -0.149 1.08    0.623     0 0      0     0     
##  4     1     2     6 -1.05  -0.149 1.08    0.623     1 0.780  1.56 -0.0514
##  5     1     3     0 -0.426 -4.21  0.625  -1.14      0 0      0     0     
##  6     1     3     6 -0.426 -4.21  0.625  -1.14      1 0.780  1.56 -0.0514
##  7     1     4     0 -0.235  0.463 0.470   0.241     0 0      0     0     
##  8     1     4     6 -0.235  0.463 0.470   0.241     1 0.780  1.56 -0.0514
##  9     1     5     0  1.19  -0.342 0.169   0.160     0 0      0     0     
## 10     1     5     6  1.19  -0.342 0.169   0.160     1 0.780  1.56 -0.0514
## #  with 372,990 more rows, and 2 more variables: c <dbl>, p <dbl>
…
Use this df_share_smooth as the data to estimate the parameters in the following section.

14.2 Estimate the parameters

First draw Monte Carlo consumer-level heterogeneity V_mcmc and Monte Carlo preference shocks e_mcmc. The number of simulations is L. This does not have to be the same with the actual number of consumers N.

V_mcmc

## # A tibble: 50,000 x 6
##        i     t  v_x_1   v_x_2  v_x_3     v_p
##    <int> <int>  <dbl>   <dbl>  <dbl>   <dbl>
##  1     1     1  0.865 -0.142  -0.667  1.17  
##  2     2     1  0.316  1.29   -1.56  -0.691 
##  3     3     1  0.673  1.35   -0.203  0.388 
##  4     4     1  0.295  0.613   1.31   0.698 
##  5     5     1  0.214 -0.0878 -0.343 -0.0642
##  6     6     1 -1.06  -0.240   0.373 -0.631 
##  7     7     1 -0.556  1.05   -1.21  -2.22  
##  8     8     1  0.376 -2.47    1.77  -0.333 
##  9     9     1 -0.872  1.36    0.508 -0.834 
## 10    10     1 -0.895 -1.26   -3.04   0.821 
## #  with 49,990 more rows
…
Next, we estimate the model allowing for the product-market-specific unobserved fixed effect \(\xi_{jt}\) using the BLP algorithm. To do so, we slightly modify the compute_indirect_utility, compute_choice_smooth, and compute_share_smooth functions so that they receive \(\delta_{jt}\) to compute the indirect utilities, choices, and shares. Be careful that the treatment of \(\alpha_i\) is slightly different from the lecture note, because we assumed that \(\alpha_i\)s are log-normal random variables.

Compute and print out \(\delta_{jt}\) at the true parameters, i.e.: \[
\delta_{jt} = \beta_0' x_j + \alpha_0' p_{jt} + \xi_{jt}.
\]

delta

## # A tibble: 746 x 3
##        t     j delta
##    <int> <dbl> <dbl>
##  1     1     0  0   
##  2     1     6 -2.40
##  3     2     0  0   
##  4     2     1 -1.15
##  5     2    10 -1.22
##  6     3     0  0   
##  7     3     1 -1.65
##  8     3     2 -4.03
##  9     3     3 -2.69
## 10     3     4 -3.78
## #  with 736 more rows
…
Write a function compute_choice_smooth_delta(X, M, V, delta, sigma, mu, omega) that first construct df from X, M, V, second call compute_indirect_utility_delta to obtain the vector of mean indirect utilities u, third compute the (smooth) choice vector q based on the vector of mean indirect utilities, and finally return the data frame to which u and q are added as columns. Print out the output with \(\delta_{jt}\) evaluated at the true parameters. Check if the output is close to the true (smooth) choice vector.

# compute choice
df_choice_smooth_delta <- 
  compute_choice_smooth_delta(X, M, V, delta, sigma, mu, omega)
df_choice_smooth_delta

## # A tibble: 373,000 x 15
##        t     i     j  v_x_1  v_x_2  v_x_3    v_p   x_1   x_2   x_3      xi
##    <int> <int> <dbl>  <dbl>  <dbl>  <dbl>  <dbl> <dbl> <dbl> <dbl>   <dbl>
##  1     1     1     0  1.16  -1.40  0.0786 -1.15      0 0      0     0     
##  2     1     1     6  1.16  -1.40  0.0786 -1.15      1 0.780  1.56 -0.0514
##  3     1     2     0 -1.05  -0.149 1.08    0.623     0 0      0     0     
##  4     1     2     6 -1.05  -0.149 1.08    0.623     1 0.780  1.56 -0.0514
##  5     1     3     0 -0.426 -4.21  0.625  -1.14      0 0      0     0     
##  6     1     3     6 -0.426 -4.21  0.625  -1.14      1 0.780  1.56 -0.0514
##  7     1     4     0 -0.235  0.463 0.470   0.241     0 0      0     0     
##  8     1     4     6 -0.235  0.463 0.470   0.241     1 0.780  1.56 -0.0514
##  9     1     5     0  1.19  -0.342 0.169   0.160     0 0      0     0     
## 10     1     5     6  1.19  -0.342 0.169   0.160     1 0.780  1.56 -0.0514
## #  with 372,990 more rows, and 4 more variables: c <dbl>, p <dbl>,
## #   u <dbl>, q <dbl>
…
summary(df_choice_smooth$q - df_choice_smooth_delta$q)

##       Min.    1st Qu.     Median       Mean    3rd Qu.       Max. 
## -1.166e-15 -6.939e-18  0.000e+00  4.540e-20  1.084e-18  1.221e-15

Write a function compute_share_delta(X, M, V, delta, sigma, mu, omega) that first construct df from X, M, V, second call compute_choice_delta to obtain a data frame with u and q, third compute the share of each product at each market s and the log difference in the share from the outside option, \(\ln(s_{jt}/s_{0t})\), denoted by y, and finally return the data frame that is summarized at the product-market level, dropped consumer-level variables, and added s and y.

# compute share
df_share_smooth_delta <-
  compute_share_smooth_delta(X, M, V, delta, sigma, mu, omega) 
df_share_smooth_delta

## # A tibble: 746 x 11
##        t     j   x_1     x_2     x_3      xi     c     p      q      s
##    <int> <dbl> <dbl>   <dbl>   <dbl>   <dbl> <dbl> <dbl>  <dbl>  <dbl>
##  1     1     0     0  0       0       0      0      0    307.   0.614 
##  2     1     6     1  0.780   1.56   -0.0514 0.980  1.91 193.   0.386 
##  3     2     0     0  0       0       0      0      0    208.   0.415 
##  4     2     1     1  0.975  -0.0324 -0.197  0.988  1.90 158.   0.317 
##  5     2    10     1 -0.0899 -0.112  -0.354  1.05   1.82 134.   0.268 
##  6     3     0     0  0       0       0      0      0    113.   0.225 
##  7     3     1     1  0.975  -0.0324  0.182  1.04   2.22  25.6  0.0513
##  8     3     2     1  1.48    1.89    0.384  1.01   2.61  14.4  0.0288
##  9     3     3     1  1.15    1.64   -0.0562 1.02   2.01  18.3  0.0366
## 10     3     4     1 -0.611   1.19    0.441  1.01   2.62   9.46 0.0189
## #  with 736 more rows, and 1 more variable: y <dbl>
…
