Chapter 5 Assignment 2: Production Function Estimation | ECON 6120I Topics in Empirical Industrial Organization
…
As discussed in the class, if there is no additional variation in labor, the coefficient on the labor \(\beta_l\) is not identified. Thus, if we generate labor choice from the previous function, \(\beta_l\) will not be identified from the simulated data. To see this, we write a modified version of the previous function in which \(\omega_{jt}\) is replaced with \(\omega_{jt} + \iota_{jt}\), where \(\iota_{jt}\) is an optimization error that follows an i.i.d. normal distribution with mean 0 and standard deviation 0.05. That is, the manager of the firm perceives as if the shock is \(\omega_{jt} + \iota_{jt}\), even though the true shock is \(\omega_{jt}\).

Modify the previous function by including \(\iota_{jt}\) as an additional input and name it log_labor_choice_error.

Consider an investment process such that: \[
I_{jt} = (\delta + \gamma w_{jt}) K_{jt},
\] where \(I_{jt}\) and \(K_{jt}\) are investment and capital in level. Set \(\gamma = 0.1\), i.e., the investment is strictly increasing in \(\omega_{jt}\). The investment function should be derived by solving the dynamic problem of a firm. But here, we just specify it in a reduced-form.

Define variable \(\gamma\) and assign it the value. Write a function that returns the investment given \(K_{jt}\), \(\omega_{jt}\), and parameter values, according to the previous equation, and name it investment_choice.

Simulate the data first using the labor choice without optimization error and second using the labor choice with optimization error. To do so, we specify the initial values for the state variables \(k_{jt}\) and \(\omega_{jt}\) as follows.

Draw \(k_{j0}\) from an i.i.d. normal distribution with mean 1 and standard deviation 0.5. Draw \(\omega_{j0}\) from its stationary distribution (check the stationary distribution of AR(1) process). Draw a wage. Before simulating the rest of the data, set the seed at 1.

## # A tibble: 1,000 x 5
##        j     t     k   omega  wage
##    <int> <dbl> <dbl>   <dbl> <dbl>
##  1     1     1 1.09   0.779  0.591
##  2     2     1 0.582 -0.610  0.591
##  3     3     1 1.80   0.148  0.591
##  4     4     1 1.16   0.0486 0.591
##  5     5     1 0.590 -1.16   0.591
##  6     6     1 1.24   0.568  0.591
##  7     7     1 1.37  -1.34   0.591
##  8     8     1 1.29  -0.873  0.591
##  9     9     1 0.847  0.699  0.591
## 10    10     1 1.76  -0.379  0.591
## # … with 990 more rows

Compute the labor and investment choice of period 1. For labor choice, compute both types of labor choices.

## # A tibble: 1,000 x 9
##        j     t     k   omega  wage     iota     l l_error       I
##    <int> <dbl> <dbl>   <dbl> <dbl>    <dbl> <dbl>   <dbl>   <dbl>
##  1     1     1 1.09   0.779  0.591 -0.0961  6.20    5.50   0.381 
##  2     2     1 0.582 -0.610  0.591  0.0810  0.700   0.775 -0.0196
##  3     3     1 1.80   0.148  0.591  0.0260  5.23    5.40   0.391 
##  4     4     1 1.16   0.0486 0.591 -0.00279 2.65    2.65   0.176 
##  5     5     1 0.590 -1.16   0.591  0.0348  0.352   0.368 -0.120 
##  6     6     1 1.24   0.568  0.591  0.00268 5.44    5.46   0.370 
##  7     7     1 1.37  -1.34   0.591 -0.0655  0.560   0.516 -0.330 
##  8     8     1 1.29  -0.873  0.591 -0.106   0.934   0.818 -0.135 
##  9     9     1 0.847  0.699  0.591 -0.0104  4.53    4.47   0.280 
## 10    10     1 1.76  -0.379  0.591 -0.0156  2.61    2.56   0.0702
## # … with 990 more rows

Draw ex post shock and compute the output according to the production function for both labor without optimization error and with optimization error.

## # A tibble: 1,000 x 12
##        j     t     k   omega  wage     iota     l l_error       I     eta
##    <int> <dbl> <dbl>   <dbl> <dbl>    <dbl> <dbl>   <dbl>   <dbl>   <dbl>
##  1     1     1 1.09   0.779  0.591 -0.0961  6.20    5.50   0.381   0.0773
##  2     2     1 0.582 -0.610  0.591  0.0810  0.700   0.775 -0.0196  0.259 
##  3     3     1 1.80   0.148  0.591  0.0260  5.23    5.40   0.391  -0.161 
##  4     4     1 1.16   0.0486 0.591 -0.00279 2.65    2.65   0.176  -0.321 
##  5     5     1 0.590 -1.16   0.591  0.0348  0.352   0.368 -0.120   0.187 
##  6     6     1 1.24   0.568  0.591  0.00268 5.44    5.46   0.370   0.361 
##  7     7     1 1.37  -1.34   0.591 -0.0655  0.560   0.516 -0.330  -0.0113
##  8     8     1 1.29  -0.873  0.591 -0.106   0.934   0.818 -0.135   0.377 
##  9     9     1 0.847  0.699  0.591 -0.0104  4.53    4.47   0.280   0.316 
## 10    10     1 1.76  -0.379  0.591 -0.0156  2.61    2.56   0.0702  0.100 
## # … with 990 more rows, and 2 more variables: y <dbl>, y_error <dbl>

Repeat this procedure for \(t = 1, \cdots 10\) by updating the capital and anticipated shocks, and name the resulting data frame df_T.

## # A tibble: 10,000 x 13
##        j     t     k   omega  wage     iota     l l_error       I     eta
##    <int> <dbl> <dbl>   <dbl> <dbl>    <dbl> <dbl>   <dbl>   <dbl>   <dbl>
##  1     1     1 1.09   0.779  0.591 -0.0961  6.20    5.50   0.381   0.0773
##  2     2     1 0.582 -0.610  0.591  0.0810  0.700   0.775 -0.0196  0.259 
##  3     3     1 1.80   0.148  0.591  0.0260  5.23    5.40   0.391  -0.161 
##  4     4     1 1.16   0.0486 0.591 -0.00279 2.65    2.65   0.176  -0.321 
##  5     5     1 0.590 -1.16   0.591  0.0348  0.352   0.368 -0.120   0.187 
##  6     6     1 1.24   0.568  0.591  0.00268 5.44    5.46   0.370   0.361 
##  7     7     1 1.37  -1.34   0.591 -0.0655  0.560   0.516 -0.330  -0.0113
##  8     8     1 1.29  -0.873  0.591 -0.106   0.934   0.818 -0.135   0.377 
##  9     9     1 0.847  0.699  0.591 -0.0104  4.53    4.47   0.280   0.316 
## 10    10     1 1.76  -0.379  0.591 -0.0156  2.61    2.56   0.0702  0.100 
## # … with 9,990 more rows, and 3 more variables: y <dbl>, y_error <dbl>,
## #   nu <dbl>
…
Using the estimates in the first step, compute: \[
y_{jt} - \hat{\beta_l} l_{jt},
\] and: \[
\hat{\phi}(k_{j, t - 1}, I_{j, t - 1}),
\] for each \(j\) and \(t\) and save it as a data frame names df_T_1st.

## # A tibble: 10,000 x 4
##        j     t y_error_tilde phi_t_1
##    <int> <dbl>         <dbl>   <dbl>
##  1     1     1          2.64  NA    
##  2     1     2          2.22   2.62 
##  3     1     3          3.13   2.73 
##  4     1     4          2.50   3.21 
##  5     1     5          3.08   2.58 
##  6     1     6          2.16   3.17 
##  7     1     7          1.30   2.54 
##  8     1     8          1.17   1.40 
##  9     1     9          1.88   0.851
## 10     1    10          1.87   1.56 
## # … with 9,990 more rows
…
