Chapter 18 Assignment 8: Dynamic Game | ECON5630 Topics in Empirical Industrial Organization
…
Write a function initialize_p_marginal(A, S) that defines an initial marginal condition choice probability. In the output p_marginal, p is the probability for firm i to take action a conditional on the state profile being l. Next, write a function compute_p_joint(p_marginal, A, S) that computes a corresponding joint conditional choice probability from a marginal conditional choice probability. In the output p_joint, p is the joint probability that firms take action profile k condition on the state profile being l. Finally, write a function compute_p_marginal(p_joint, A, S) that compute a corresponding marginal conditional choice probability from a joint conditional choice probability.

# define a conditional choice probability for each firm
p_marginal <- initialize_p_marginal(A, S)
p_marginal

## # A tibble: 750 x 4
##        i     l     a     p
##    <int> <int> <int> <dbl>
##  1     1     1     0   0.5
##  2     1     1     1   0.5
##  3     1     2     0   0.5
##  4     1     2     1   0.5
##  5     1     3     0   0.5
##  6     1     3     1   0.5
##  7     1     4     0   0.5
##  8     1     4     1   0.5
##  9     1     5     0   0.5
## 10     1     5     1   0.5
## # ... with 740 more rows

dim(p_marginal)[1] == N * m_s * (K + 1)

## [1] TRUE

# compute joint conitional choice probability from marginal probability
p_joint <- compute_p_joint(p_marginal, A, S)
p_joint

## # A tibble: 1,000 x 3
##        l     k     p
##    <int> <int> <dbl>
##  1     1     1 0.125
##  2     1     2 0.125
##  3     1     3 0.125
##  4     1     4 0.125
##  5     1     5 0.125
##  6     1     6 0.125
##  7     1     7 0.125
##  8     1     8 0.125
##  9     2     1 0.125
## 10     2     2 0.125
## # ... with 990 more rows
…
## [1] TRUE

The optimal conditional choice probability is written as a function of an ex-ante value function and a conditional choice probability of others as follows:
\[
\Lambda_i^{(\theta_1, \theta_2)}(V_i, p_{-i})(a_i, s) := \frac{\exp\{\sum_{a_{-i}}p_{-i}(a_{-i}|s)[\pi_i(a_i, a_{-i}, s) + \delta \sum_{s'}V_i(s')g(a_i, a_{-i}, s, s')]\}}{\sum_{a_i'}\exp\{\sum_{a_{-i}}p_{-i}(a_{-i}|s)[\pi_i(a_i', a_{-i}, s) + \delta \sum_{s'}V_i(s')g(a_i', a_{-i}, s, s')]\}},
\]
where \(V\) is an ex-ante value function.

Write a function compute_profile_value_game(V, PI, G, delta, S, A) that returns a data frame that contains information on value function at a state and action profile for each firm. In the output value, i is the index of a firm, l is the index of a state profile, k is the index of an action profile, and value is the value for the firm at the state and action profile.

# compute state-action-profile value function
value <- compute_profile_value_game(V, PI, G, delta, S, A)
value

## # A tibble: 3,000 x 4
##        i     l     k value
##    <int> <int> <int> <dbl>
##  1     1     1     1 10.2 
##  2     1     1     2  9.63
##  3     1     1     3  9.90
##  4     1     1     4  9.13
##  5     1     1     5  9.90
##  6     1     1     6  9.13
##  7     1     1     7  9.55
##  8     1     1     8  8.64
##  9     1     2     1 13.0 
## 10     1     2     2 12.1 
## # ... with 2,990 more rows

dim(value)[1] == N * m_s * m_a

## [1] TRUE

Write a function compute_choice_value_game(p_marginal, V, PI, G, delta, A, S) that computes a data frame that contains information on a choice-specific value function given an ex-ante value function and a conditional choice probability of others.

# compute choice-specific value function
value <- compute_choice_value_game(p_marginal, V, PI, G, delta, A, S)
value

## # A tibble: 750 x 4
##        i     l     a value
##    <int> <int> <int> <dbl>
##  1     1     1     0  9.90
##  2     1     1     1  9.13
##  3     1     2     0 12.4 
##  4     1     2     1 11.4 
##  5     1     3     0 14.5 
##  6     1     3     1 13.2 
##  7     1     4     0 16.0 
##  8     1     4     1 14.3 
##  9     1     5     0 16.8 
## 10     1     5     1 14.8 
## # ... with 740 more rows

Write a function compute_ccp_game(p_marginal, V, PI, G, delta, A, S) that computes a data frame that contains information on a conditional choice probability given an ex-ante value function and a conditional choice probability of others.

# compute conditional choice probability 
p_marginal <- compute_ccp_game(p_marginal, V, PI, G, delta, A, S)
p_marginal

## # A tibble: 750 x 4
##        i     l     a     p
##    <int> <int> <int> <dbl>
##  1     1     1     0 0.683
##  2     1     1     1 0.317
##  3     1     2     0 0.734
##  4     1     2     1 0.266
##  5     1     3     0 0.794
##  6     1     3     1 0.206
##  7     1     4     0 0.840
##  8     1     4     1 0.160
##  9     1     5     0 0.881
## 10     1     5     1 0.119
## # ... with 740 more rows
…
Write a function simulate_dynamic_game(p_joint, l, G, N, T, S, A, seed) that simulate the data for a market starting from an initial state for \(T\) periods. The function should accept a value of seed and set the seed at the beginning of the procedure inside the function, because the process is stochastic.

# simulate a dynamic game
# set initial state profile
l <- 1
# draw simulation for a firm
seed <- 1
df <- simulate_dynamic_game(p_joint, l, G, N, T, S, A, seed)
df

## # A tibble: 300 x 6
##        t     i     l     k     s     a
##    <int> <int> <dbl> <dbl> <int> <int>
##  1     1     1     1     1     1     0
##  2     1     2     1     1     1     0
##  3     1     3     1     1     1     0
##  4     2     1     1     5     1     0
##  5     2     2     1     5     1     0
##  6     2     3     1     5     1     1
##  7     3     1    26     6     1     1
##  8     3     2    26     6     1     0
##  9     3     3    26     6     2     1
## 10     4     1    26     5     1     0
## # ... with 290 more rows

Write a function simulate_dynamic_decision_across_firms(p_joint, l, G, N, T, M, S, A, seed) that returns simulation data for \(N\) firm. For firm \(i\), set the seed at \(i\)

# simulate data across markets
df <- simulate_dynamic_decision_across_markets(p_joint, l, G, N, T, M, S, A)
save(df, file = "data/A8_df.RData")

load(file = "data/A8_df.RData")
df

## # A tibble: 300,000 x 7
##        m     t     i     l     k     s     a
##    <int> <int> <int> <dbl> <dbl> <int> <int>
##  1     1     1     1     1     1     1     0
##  2     1     1     2     1     1     1     0
##  3     1     1     3     1     1     1     0
##  4     1     2     1     1     5     1     0
##  5     1     2     2     1     5     1     0
##  6     1     2     3     1     5     1     1
##  7     1     3     1    26     6     1     1
##  8     1     3     2    26     6     1     0
##  9     1     3     3    26     6     2     1
## 10     1     4     1    26     5     1     0
## # ... with 299,990 more rows
…
