Chapter 17 Assignment 7: Dynamic Decision | ECON5630 Topics in Empirical Industrial Organization
…
Write a function simulate_dynamic_decision(p, s, PI, G, L, K, T, delta, seed) that simulate the data for a single firm starting from an initial state for \(T\) periods. The function should accept a value of seed and set the seed at the beginning of the procedure inside the function, because the process is stochastic.

# set initial value
s <- 1
# draw simulation for a firm
seed <- 1
df <- simulate_dynamic_decision(p, s, PI, G, L, K, T, delta, seed); df

## # A tibble: 100 x 3
##        t     s     a
##    <int> <dbl> <dbl>
##  1     1     1     0
##  2     2     1     0
##  3     3     1     0
##  4     4     1     1
##  5     5     2     1
##  6     6     1     0
##  7     7     1     0
##  8     8     1     0
##  9     9     1     0
## 10    10     1     0
## #  with 90 more rows

Write a function simulate_dynamic_decision_across_firms(p, s, PI, G, L, K, T, N, delta) that returns simulation data for \(N\) firm. For firm \(i\), set the seed at \(i\)

df <- simulate_dynamic_decision_across_firms(p, s, PI, G, L, K, T, N, delta)
save(df, file = "data/A7_df.RData")

load(file = "data/A7_df.RData")
df

## # A tibble: 100,000 x 4
##        i     t     s     a
##    <int> <int> <dbl> <dbl>
##  1     1     1     1     0
##  2     1     2     1     0
##  3     1     3     1     0
##  4     1     4     1     1
##  5     1     5     2     1
##  6     1     6     1     0
##  7     1     7     1     0
##  8     1     8     1     0
##  9     1     9     1     0
## 10     1    10     1     0
## #  with 99,990 more rows
…
